[
    {
        "model": "auth.user",
        "pk": 1,
        "fields": {
            "password": "pbkdf2_sha256$36000$MR4vF1x1RYpz$LybSUxFYJqWrPI4VkFHc2fY18y609vY/2NvEijCY5oo=",
            "last_login": null,
            "is_superuser": true,
            "username": "admin1",
            "first_name": "",
            "last_name": "",
            "email": "admin1@example.com",
            "is_staff": true,
            "is_active": true,
            "date_joined": "2017-08-16T04:15:23.716Z",
            "groups": [],
            "user_permissions": []
        }
    },
    {
        "model": "auth.user",
        "pk": 2,
        "fields": {
            "password": "pbkdf2_sha256$36000$COHwScAAXg7Y$jx7+CBDHgaaIzJ7SIR0HV2cYHDI9kJzpugumbSjKmLo=",
            "last_login": null,
            "is_superuser": true,
            "username": "admin2",
            "first_name": "",
            "last_name": "",
            "email": "admin2@example.com",
            "is_staff": true,
            "is_active": true,
            "date_joined": "2017-08-16T04:15:39.342Z",
            "groups": [],
            "user_permissions": []
        }
    },
    {
        "model": "auth.user",
        "pk": 3,
        "fields": {
            "password": "pbkdf2_sha256$36000$hpkXv3kvaNqK$TvGw5pT1uXTRvMlWdjkiSuRe/leZK+5jGADpyBj3fic=",
            "last_login": null,
            "is_superuser": true,
            "username": "admin3",
            "first_name": "",
            "last_name": "",
            "email": "admin3@example.com",
            "is_staff": true,
            "is_active": true,
            "date_joined": "2017-08-16T04:15:55.150Z",
            "groups": [],
            "user_permissions": []
        }
    }
]
